id;nom;variete;type;espacement;espacement_rang;ensoleillement;arrosage;debut_plantation;fin_plantation;debut_recolte;fin_recolte;debut_semis;fin_semis;categorie;image
1;b tolerance;circuit innovative;FLEURS;84467;4870;OMBRE;SANS;OCTOBRE;JANVIER;MARS;SEPTEMBRE;JUIN;JUILLET;PLANT;dynamic
2;invoice application;Small mobile;FLEURS;91674;86901;SOLEIL;SANS;DECEMBRE;JANVIER;FEVRIER;AOUT;JUIN;OCTOBRE;SEMIS;non-volatile
3;ADP high-level optimizing;Future-proofed;AROMATIQUE;2842;47346;MI_OMBRE;SANS;NOVEMBRE;NOVEMBRE;JUIN;JUIN;JUIN;MAI;SEMIS;Directeur de Concrete
4;solid Bedfordshire;Small Account deploy;ARBUSTRE;60768;33561;MI_OMBRE;SANS;JANVIER;JUILLET;AOUT;JUIN;FEVRIER;DECEMBRE;PLANT;Serbie
5;Borders Cordoba extensible;invoice capacitor Cotton;ARBUSTRE;15589;32718;SOLEIL;REGULIER;JUILLET;MARS;AVRIL;MARS;AVRIL;MARS;SEMIS;c
6;Operative withdrawal;Generic;FRUIT;55285;13282;MI_OMBRE;REGULIER;OCTOBRE;FEVRIER;SEPTEMBRE;MARS;DECEMBRE;JUIN;PLANT;JSON Fresh Mozambique
7;TCP;alarm Baby;LEGUME;83121;98522;MI_OMBRE;REGULIER;AVRIL;DECEMBRE;FEVRIER;JUILLET;MARS;DECEMBRE;SEMIS;models killer motivating
8;auxiliary Handcrafted Mouffetard;sensor;AROMATIQUE;40530;49264;MI_OMBRE;SANS;SEPTEMBRE;FEVRIER;NOVEMBRE;MARS;AVRIL;FEVRIER;PLANT;mobile
9;Pizza Home e-services;b;LEGUME;17015;83196;MI_OMBRE;LEGER;DECEMBRE;AVRIL;JANVIER;JANVIER;SEPTEMBRE;AOUT;SEMIS;Handmade
10;technologies;eyeballs Montorgueil Brunei;AROMATIQUE;90819;41435;SOLEIL;REGULIER;NOVEMBRE;AVRIL;DECEMBRE;NOVEMBRE;MARS;JANVIER;SEMIS;Grèce
