{
  "changelogDate": "20230225155535",
  "dto": "no",
  "fields": [
    {
      "fieldName": "nom",
      "fieldType": "String"
    },
    {
      "fieldName": "variete",
      "fieldType": "String"
    },
    {
      "fieldName": "type",
      "fieldType": "typePlante",
      "fieldValues": "LEGUME,FRUIT,AROMATIQUE,FLEURS,ARBUSTRE"
    },
    {
      "fieldName": "espacement",
      "fieldType": "Float"
    },
    {
      "fieldName": "espacementRang",
      "fieldType": "Float"
    },
    {
      "fieldName": "ensoleillement",
      "fieldType": "exposition",
      "fieldValues": "OMBRE,MI_OMBRE,SOLEIL"
    },
    {
      "fieldName": "arrosage",
      "fieldType": "frequenceArrosage",
      "fieldValues": "SANS,LEGER,MOYEN,REGULIER"
    },
    {
      "fieldName": "debutPlantation",
      "fieldType": "mois",
      "fieldValues": "JANVIER,FEVRIER,MARS,AVRIL,MAI,JUIN,JUILLET,AOUT,SEPTEMBRE,OCTOBRE,NOVEMBRE,DECEMBRE"
    },
    {
      "fieldName": "finPlantation",
      "fieldType": "mois",
      "fieldValues": "JANVIER,FEVRIER,MARS,AVRIL,MAI,JUIN,JUILLET,AOUT,SEPTEMBRE,OCTOBRE,NOVEMBRE,DECEMBRE"
    },
    {
      "fieldName": "debutRecolte",
      "fieldType": "mois",
      "fieldValues": "JANVIER,FEVRIER,MARS,AVRIL,MAI,JUIN,JUILLET,AOUT,SEPTEMBRE,OCTOBRE,NOVEMBRE,DECEMBRE"
    },
    {
      "fieldName": "finRecolte",
      "fieldType": "mois",
      "fieldValues": "JANVIER,FEVRIER,MARS,AVRIL,MAI,JUIN,JUILLET,AOUT,SEPTEMBRE,OCTOBRE,NOVEMBRE,DECEMBRE"
    },
    {
      "fieldName": "debutSemis",
      "fieldType": "mois",
      "fieldValues": "JANVIER,FEVRIER,MARS,AVRIL,MAI,JUIN,JUILLET,AOUT,SEPTEMBRE,OCTOBRE,NOVEMBRE,DECEMBRE"
    },
    {
      "fieldName": "finSemis",
      "fieldType": "mois",
      "fieldValues": "JANVIER,FEVRIER,MARS,AVRIL,MAI,JUIN,JUILLET,AOUT,SEPTEMBRE,OCTOBRE,NOVEMBRE,DECEMBRE"
    },
    {
      "fieldName": "categorie",
      "fieldType": "categoriePlante",
      "fieldValues": "PLANT,SEMIS"
    },
    {
      "fieldName": "image",
      "fieldType": "String"
    }
  ],
  "jpaMetamodelFiltering": false,
  "name": "Plante",
  "pagination": "infinite-scroll",
  "readOnly": false,
  "relationships": [],
  "service": "serviceClass"
}
